{
  "name": "734 translations",
  "size": 70000,
  "children": [
    {
      "name": "Nedherlands",
      "size": 25000,
      "children": [
        {
          "name": "1",
          "size": 15000
        }
      ]
    },
    {
      "name": "France",
      "size": 25000,
      "children": [
        {
          "name": "26",
          "size": 15000
        }
      ]
    },
    {
      "name": "England",
      "size": 25000,
      "children": [
        {
          "name": "390",
          "size": 15000
        }
      ]
    },
    {
      "name": "Germany",
      "size": 25000,
      "children": [
        {
          "name": "100",
          "size": 15000
        }
      ]
    },
    {
      "name": "Finland",
      "size": 25000,
      "children": [
        {
          "name": "1",
          "size": 15000
        }
      ]
    },
    {
      "name": "Sweden",
      "size": 25000,
      "children": [
        {
          "name": "21",
          "size": 15000
        }
      ]
    },
    {
      "name": "United States",
      "size": 25000,
      "children": [
        {
          "name": "99",
          "size": 15000
        }
      ]
    },
    {
      "name": "Spain",
      "size": 25000,
      "children": [
        {
          "name": "1",
          "size": 15000
        }
      ]
    },
    {
      "name": "Denmark",
      "size": 25000,
      "children": [
        {
          "name": "1",
          "size": 15000
        }
      ]
    },
    {
      "name": "Italy",
      "size": 25000,
      "children": [
        {
          "name": "5",
          "size": 15000
        }
      ]
    },
    {
      "name": "Cheque Republic",
      "size": 25000,
      "children": [
        {
          "name": "1",
          "size": 15000
        }
      ]
    },
    {
      "name": "Russia",
      "size": 25000,
      "children": [
        {
          "name": "1",
          "size": 15000
        }
      ]
    },
    {
      "name": "Poland",
      "size": 25000,
      "children": [
        {
          "name": "1",
          "size": 15000
        }
      ]
    },
    {
      "name": "Switzerland",
      "size": 25000,
      "children": [
        {
          "name": "6",
          "size": 15000
        }
      ]
    },
    {
      "name": "Ireland",
      "size": 25000,
      "children": [
        {
          "name": "29",
          "size": 15000
        }
      ]
    },
    {
      "name": "Canada",
      "size": 25000,
      "children": [
        {
          "name": "10",
          "size": 15000
        }
      ]
    },
    {
      "name": "Austria",
      "size": 15000,
      "children": [
        {
          "name": "5",
          "size": 25000
        }
      ]
    },
    {
      "name": "Scotland",
      "size": 25000,
      "children": [
        {
          "name": "12",
          "size": 15000
        }
      ]
    }
  ]
}